Modelling the frequency of insurance claims – gorans blog
…
3.2 Split into training and test set

It is very important to not split the dataset into training and test set before doing any data preprocessing. Otherwise, we might introduce a bias in the model. We will split the dataset into a training and a test set with a ratio of 80:20.

df_train, df_test = let
    
    idxs = shuffle!(collect(axes(df, 1)))
    idx_split = ceil(Int, length(idxs) * 0.8)
    df[idxs[1:idx_split],:], df[idxs[idx_split+1:end],:]
end

(542411×12 DataFrame
    Row │ IDpol    ClaimNb  Exposure  Area   VehPower  VehAge   DrivAge  Bonus ⋯
        │ Int64    Int64    Float64   Int64  Float64   Float64  Float64  Float ⋯
────────┼───────────────────────────────────────────────────────────────────────
      1 │ 3151433        0      0.51      1       7.0      3.0     49.0        ⋯
      2 │ 3213399        1      0.64      3      10.0      7.0     46.0
      3 │ 1044219        0      1.0       6       4.0     15.0     64.0
      4 │ 4035567        0      0.61      5       5.0      1.0     51.0
      5 │ 4044984        0      0.9       3       4.0      0.0     43.0        ⋯
      6 │ 1195413        0      0.49      5       9.0      3.0     35.0
      7 │ 2122535        0      1.0       3       8.0     10.0     39.0
      8 │ 2110683        0      0.64      6      15.0      1.0     28.0
   ⋮    │    ⋮        ⋮        ⋮        ⋮       ⋮         ⋮        ⋮         ⋮ ⋱
 542405 │ 4046999        0      0.9       1       8.0      2.0     34.0        ⋯
 542406 │ 6064316        0      0.74      5       5.0      2.0     69.0
 542407 │ 4002534        0      0.02      5       4.0     10.0     73.0
 542408 │ 1127531        0      0.85      4       7.0      1.0     53.0
 542409 │ 1066899        0      0.16      5       7.0      9.0     47.0        ⋯
 542410 │ 4021344        0      0.12      3       4.0      2.0     60.0
 542411 │ 1113673        0      0.38      3       7.0     12.0     33.0
                                               5 columns and 542396 rows omitted, 135602×12 DataFrame
…
